{
    "MPN": [
        false,
        "1N5819WS"
    ],
    "datasheet": [
        false,
        "https://datasheet.lcsc.com/lcsc/1810202112_Guangdong-Hottech-1N5819WS_C191023.pdf"
    ],
    "description": [
        false,
        "40V 600mV @ 1A SOD-323 Schottky Barrier Diode"
    ],
    "entity": "cba5158c-706d-4f10-b48a-2de7e5a82a4c",
    "inherit_model": false,
    "inherit_tags": false,
    "manufacturer": [
        false,
        "Guangdong Hottech Industrial Co."
    ],
    "model": "bdafba99-5da8-42b8-8beb-7235f01d7a53",
    "package": "16e0f97b-6b1d-4db0-92db-b406575a380b",
    "pad_map": {
        "773a74e2-ed84-43cc-b514-788422dbe101": {
            "gate": "3a9cf76e-893b-4785-a6af-6f15da2086dc",
            "pin": "16ee5a5c-8eea-4447-ad48-04d973776e3a"
        },
        "d3f91326-042a-4549-b2dd-5b7b45431266": {
            "gate": "3a9cf76e-893b-4785-a6af-6f15da2086dc",
            "pin": "b57ca2a1-1bbf-43f0-b0a0-bf953094a8de"
        }
    },
    "parametric": {},
    "tags": [
        "diode",
        "schottky",
        "sod-323"
    ],
    "type": "part",
    "uuid": "d65dd4ca-4520-429d-9a72-6db1a40ba69a",
    "value": [
        false,
        ""
    ]
}