[{x:3.5,c:"#21c2ad",p:"OEM R4"},"#\n3\n\n\nF3",{x:10.5},"*\n8\n\n\nF8"],
[{y:-0.875,x:2.5,sm:"cherry",sb:"kailh"},"@\n2\n\n\nF2",{x:1},"$\n4\n\n\nF4",{x:8.5},"&\n7\n\n\nF7",{x:1},"(\n9\n\n\nF9"],
[{y:-0.875,x:5.5},"%\n5\n\n\nF5",{x:6.5},"^\n6\n\n\nF6"],
[{y:-0.875,x:1.5},"!\n1\n\n\nF1",{x:14.5},")\n0\n\n\nF10","_\n-\n\n\nF11","+\n=\n\n\nF12"],
[{y:-0.375,x:3.5,p:"OEM R3",a:7},"E\n\n\n\nF15",{x:10.5},"I\n\n\n\nF20"],
[{y:-0.875,x:2.5},"W\n\n\n\nF14",{x:1},"R\n\n\n\nF16",{x:8.5},"U\n\n\n\nF19",{x:1},"O\n\n\n\nF21"],
[{y:-0.875,x:5.5},"T\n\n\n\nF17",{p:"OEM",h:1.5},"M2",{x:4.5,h:1.5},"M3",{p:"OEM R3"},"Y\n\n\n\nF18"],
[{y:-0.875,x:0.5,a:4},"~\n`",{a:7},"Q\n\n\n\nF13",{x:14.5},"P\n\n\n\nF22",{a:4},"{\n[\n\n\nF23","}\n]\n\n\nF24"],
[{y:-0.375,x:3.5,p:"OEM R2",a:7},"D",{x:10.5},"K"],
[{y:-0.875,x:2.5},"S",{x:1,n:true},"F",{x:8.5,n:true},"J",{x:1},"L"],
[{y:-0.875,x:5.5},"G",{x:6.5},"H"],
[{y:-0.875,x:0.5,c:"#595b70",t:"#f0f0f0",a:5},"Esc\nCtrl",{c:"#21c2ad",t:"#000000",a:7},"A",{x:14.5,a:4},":\n;","\"\n'","|\n\\"],
[{y:-0.625,x:6.5,p:"OEM",a:7,h:1.5},"M1",{x:4.5,h:1.5},"M4"],
[{y:-0.75,x:3.5,p:"OEM R1"},"C",{x:10.5,a:4},"<\n,"],
[{y:-0.875,x:2.5,a:7},"X",{x:1},"V",{x:8.5},"M",{x:1,a:4},">\n."],
[{y:-0.875,x:5.5,a:7},"B",{x:6.5},"N"],
[{y:-0.875,x:0.5,c:"#595b70",t:"#f0f0f0",a:5},"(\nLShift\n\n\nCapsLk",{c:"#21c2ad",t:"#000000",a:7},"Z",{x:14.5,c:"#595b70",t:"#f0f0f0",a:5},")\nRShift",{a:7},"↑\n\n\n\nPgUp",{c:"#21c2ad",t:"#000000",a:4},"?\n/"],
[{x:0.5,c:"#595b70",t:"#f0f0f0",a:7},"Fn","ScrLk\n\n\n\nSysRq","Menu\n\n\n\nPrtSc",{x:13.5},"←\n\n\n\nHome","↓\n\n\n\nPgDown","→\n\n\n\nEnd"],
[{r:30,rx:6.5,ry:4.25,p:"OEM",h:2},"Space",{h:2},"Tab"],
[{x:-2,p:"OEM R1"},"Alt\n\n\n\nRAlt","Gui"],
[{r:-30,rx:13,x:-2,p:"OEM",h:2},"Bksp",{h:2},"Return"],
[{p:"OEM R1"},"Del\n\n\n\nIns","Comp\n\n\n\nPause"]
